
Program version openQ*D-1.1
Git version: https://gitlab.com/rcstar/openQxD-devel/-/tree/bbceceee081cce50017fefe72d13840f8ce0b168
The machine is little endian
64x64x32x32 lattice, 16x16x8x16 local lattice
4x4x4x2 process grid, 1x1x1x1 process block size
SF boundary conditions on the quark fields

--------------INPUT FILE-----------------------------
# one config takes 3h 15 min
# recommended settings:
#SBATCH --times=05:00:00
#SBATCH --nodes=4
#SBATCH --ntasks-per-node=32

[Run name]
name	     64x32b3.24a0.00ku0.134408kd0.134408ks0.134408kc0.127840r003

[Directories]
sfld_dir     /scratch/snx3000/aaltherr/g-2/sfld/A400a00b324
dat_dir      /scratch/snx3000/aaltherr/g-2/dat/A400a00b324/disconnected_el
log_dir      /scratch/snx3000/aaltherr/g-2/dat/A400a00b324/disconnected_el
cnfg_dir     /project/s1196/Configs/A400a00b324

[Configurations]
first        10
last         2000
step         10

[Random number generator]
level        0
seed         73101

[Gauge group]
gauge        SU(3)
nfl	     1

[Boundary conditions]
type 	     3             # 3=periodic, 1=SF, 0=open, 2=open-SF
cstar        3             # 0,1,2,3; number of spatial direction with C* boundary condition

[Source fields]
nsrc         1000       # number of noise sources
noise	     hopping	    # naive, split-even, hopping
nhop	     2
frequencies  0.12784

[Vector current]
current_type 0
idirac       1 2 3

[Dirac operator]
fl           0        # charm (0)
kappa        0.12784 # https://arxiv.org/pdf/2108.11989.pdf
qhat	     0
qval	     6
su3csw       2.18859
u1csw        1.0
theta        0.0 0.0 0.0   # Angles specifying the phase-periodic bc
mu           0.0
ncontractions 1

[Contraction 0] # <t^0 t^0 >
factors1     4
factors2     4
denominator  6.0

# specify one solver per flavor, see doc/parms.pdf Section 5. [Solver i] is
# used to solve the Dirac operator for flavor i. Supported solvers are 
# CGNE, SAP_GCR, and DFL_SAP_GCR.

[Solver 0]
solver      DFL_SAP_GCR
ifl	    0
nkv         24
isolv       0
nmr         4
ncy         5
nmx         1000
idfl        0
res         1.0e-10

[Deflation subspace generation 0]
qhat	    4
kappa       0.12784  # a little bit smaller than kappa in [Dirac operator]
mu	    0.001
su3csw      2.18859       # Coefficient of the SU(3) SW term
u1csw	    0.0
theta       0.0 0.0 0.0    # Angles specifying the phase-periodic bc
                            # of the quark fields in space
ninv        9
nmr         4
ncy         4

[SAP]
bs          4 4 4 4

[Deflation subspace]
bs          4 4 4 4
Ns          20

[Deflation projection]
nkv         24
nmx         512
res         1.0e-2

--------------INPUT FILE END-------------------------

Gauge group: SU(3)

C-periodic boundary conditions in 3 spatial directions
Periodic boundary conditions in time
Physical lattice 64x32x32x32



Configurations no 40 -> 40 in steps of 10

Number of flavors: 1
For each point source, we invert N0 x nfl = 64 x 1 times.
A dot (.) denotes successful inversion for a single flavor.
`-` denotes a skipped calculation due to existing files.
Configuration no 40
Initializing gauge links from file /project/s1196/Configs/A400a00b324/64x32b3.24a0.00ku0.134408kd0.134408ks0.134408kc0.127840r003n40
Generation of deflation subspace 0: status = 4
nhop=2 hopping terms for flavor=0
time: 128.858250 s

inverting point source 1/1000:
Source 1 took 4.775585 s

inverting point source 2/1000:
Source 2 took 3.847408 s

inverting point source 3/1000:
Source 3 took 3.848743 s

inverting point source 4/1000:
Source 4 took 3.841590 s

inverting point source 5/1000:
Source 5 took 3.876887 s

inverting point source 6/1000:
Source 6 took 3.873719 s

inverting point source 7/1000:
Source 7 took 3.842248 s

inverting point source 8/1000:
Source 8 took 3.854439 s

inverting point source 9/1000:
Source 9 took 3.853907 s

inverting point source 10/1000:
Source 10 took 3.864831 s

inverting point source 11/1000:
Source 11 took 3.865621 s

inverting point source 12/1000:
Source 12 took 3.885390 s

inverting point source 13/1000:
Source 13 took 3.853827 s

inverting point source 14/1000:
Source 14 took 3.847349 s

inverting point source 15/1000:
Source 15 took 3.842893 s

inverting point source 16/1000:
Source 16 took 3.852805 s

inverting point source 17/1000:
Source 17 took 3.844086 s

inverting point source 18/1000:
Source 18 took 3.840637 s

inverting point source 19/1000:
Source 19 took 3.857772 s

inverting point source 20/1000:
Source 20 took 3.845309 s

inverting point source 21/1000:
Source 21 took 3.855637 s

inverting point source 22/1000:
Source 22 took 3.851214 s

inverting point source 23/1000:
Source 23 took 3.887180 s

inverting point source 24/1000:
Source 24 took 3.850371 s

inverting point source 25/1000:
Source 25 took 3.845861 s

inverting point source 26/1000:
Source 26 took 3.868196 s

inverting point source 27/1000:
Source 27 took 3.840848 s

inverting point source 28/1000:
Source 28 took 3.843256 s

inverting point source 29/1000:
Source 29 took 3.841922 s

inverting point source 30/1000:
Source 30 took 3.843754 s

inverting point source 31/1000:
Source 31 took 3.844260 s

inverting point source 32/1000:
Source 32 took 3.855024 s

inverting point source 33/1000:
Source 33 took 3.849006 s

inverting point source 34/1000:
Source 34 took 3.844671 s

inverting point source 35/1000:
Source 35 took 3.840609 s

inverting point source 36/1000:
Source 36 took 3.842458 s

inverting point source 37/1000:
Source 37 took 3.844685 s

inverting point source 38/1000:
Source 38 took 3.851948 s

inverting point source 39/1000:
Source 39 took 3.851348 s

inverting point source 40/1000:
Source 40 took 3.846337 s

inverting point source 41/1000:
Source 41 took 3.842188 s

inverting point source 42/1000:
Source 42 took 3.876166 s

inverting point source 43/1000:
Source 43 took 3.851908 s

inverting point source 44/1000:
Source 44 took 3.841585 s

inverting point source 45/1000:
Source 45 took 3.881654 s

inverting point source 46/1000:
Source 46 took 3.843109 s

inverting point source 47/1000:
Source 47 took 3.843218 s

inverting point source 48/1000:
Source 48 took 3.843122 s

inverting point source 49/1000:
Source 49 took 3.849981 s

inverting point source 50/1000:
Source 50 took 3.845186 s

inverting point source 51/1000:
Source 51 took 3.852982 s

inverting point source 52/1000:
Source 52 took 3.849382 s

inverting point source 53/1000:
Source 53 took 3.845849 s

inverting point source 54/1000:
Source 54 took 3.842965 s

inverting point source 55/1000:
Source 55 took 3.841634 s

inverting point source 56/1000:
Source 56 took 3.848175 s

inverting point source 57/1000:
Source 57 took 3.841589 s

inverting point source 58/1000:
Source 58 took 3.848387 s

inverting point source 59/1000:
Source 59 took 3.844191 s

inverting point source 60/1000:
Source 60 took 3.842403 s

inverting point source 61/1000:
Source 61 took 3.840731 s

inverting point source 62/1000:
Source 62 took 3.849506 s

inverting point source 63/1000:
Source 63 took 3.847256 s

inverting point source 64/1000:
Source 64 took 3.840969 s

inverting point source 65/1000:
Source 65 took 3.843423 s

inverting point source 66/1000:
Source 66 took 3.842104 s

inverting point source 67/1000:
Source 67 took 3.843715 s

inverting point source 68/1000:
Source 68 took 3.848805 s

inverting point source 69/1000:
Source 69 took 3.840631 s

inverting point source 70/1000:
Source 70 took 3.842367 s

inverting point source 71/1000:
Source 71 took 3.843126 s

inverting point source 72/1000:
Source 72 took 3.842547 s

inverting point source 73/1000:
Source 73 took 3.844832 s

inverting point source 74/1000:
Source 74 took 3.850700 s

inverting point source 75/1000:
Source 75 took 3.855577 s

inverting point source 76/1000:
Source 76 took 3.841666 s

inverting point source 77/1000:
Source 77 took 3.841916 s

inverting point source 78/1000:
Source 78 took 3.842349 s

inverting point source 79/1000:
Source 79 took 3.928411 s

inverting point source 80/1000:
Source 80 took 3.840233 s

inverting point source 81/1000:
Source 81 took 3.875255 s

inverting point source 82/1000:
Source 82 took 3.857118 s

inverting point source 83/1000:
Source 83 took 3.841001 s

inverting point source 84/1000:
Source 84 took 3.842204 s

inverting point source 85/1000:
Source 85 took 3.843939 s

inverting point source 86/1000:
Source 86 took 3.873243 s

inverting point source 87/1000:
Source 87 took 3.852864 s

inverting point source 88/1000:
Source 88 took 3.849108 s

inverting point source 89/1000:
Source 89 took 3.844893 s

inverting point source 90/1000:
Source 90 took 3.842453 s

inverting point source 91/1000:
Source 91 took 4.258895 s

inverting point source 92/1000:
Source 92 took 3.884298 s

inverting point source 93/1000:
Source 93 took 3.860542 s

inverting point source 94/1000:
Source 94 took 3.855451 s

inverting point source 95/1000:
Source 95 took 3.839833 s

inverting point source 96/1000:
Source 96 took 3.843783 s

inverting point source 97/1000:
Source 97 took 3.841507 s

inverting point source 98/1000:
Source 98 took 3.840501 s

inverting point source 99/1000:
Source 99 took 3.841886 s

inverting point source 100/1000:
Source 100 took 3.849947 s

inverting point source 101/1000:
Source 101 took 3.841514 s

inverting point source 102/1000:
Source 102 took 3.840003 s

inverting point source 103/1000:
Source 103 took 3.845621 s

inverting point source 104/1000:
Source 104 took 3.848337 s

inverting point source 105/1000:
Source 105 took 3.848929 s

inverting point source 106/1000:
Source 106 took 3.840661 s

inverting point source 107/1000:
Source 107 took 3.843188 s

inverting point source 108/1000:
Source 108 took 3.878912 s

inverting point source 109/1000:
Source 109 took 3.840221 s

inverting point source 110/1000:
Source 110 took 3.840622 s

inverting point source 111/1000:
Source 111 took 3.850923 s

inverting point source 112/1000:
Source 112 took 3.853090 s

inverting point source 113/1000:
Source 113 took 3.842670 s

inverting point source 114/1000:
Source 114 took 3.841409 s

inverting point source 115/1000:
Source 115 took 3.841205 s

inverting point source 116/1000:
Source 116 took 3.840106 s

inverting point source 117/1000:
Source 117 took 3.879236 s

inverting point source 118/1000:
Source 118 took 3.841830 s

inverting point source 119/1000:
Source 119 took 3.845252 s

inverting point source 120/1000:
Source 120 took 3.844209 s

inverting point source 121/1000:
Source 121 took 3.841347 s

inverting point source 122/1000:
Source 122 took 3.851958 s

inverting point source 123/1000:
Source 123 took 3.850161 s

inverting point source 124/1000:
Source 124 took 3.850276 s

inverting point source 125/1000:
Source 125 took 3.841700 s

inverting point source 126/1000:
Source 126 took 3.842445 s

inverting point source 127/1000:
Source 127 took 3.855887 s

inverting point source 128/1000:
Source 128 took 3.848887 s

inverting point source 129/1000:
Source 129 took 3.841425 s

inverting point source 130/1000:
Source 130 took 3.848114 s

inverting point source 131/1000:
Source 131 took 3.841864 s

inverting point source 132/1000:
Source 132 took 3.842884 s

inverting point source 133/1000:
Source 133 took 3.839801 s

inverting point source 134/1000:
Source 134 took 3.842536 s

inverting point source 135/1000:
Source 135 took 3.855844 s

inverting point source 136/1000:
Source 136 took 3.842502 s

inverting point source 137/1000:
Source 137 took 3.841696 s

inverting point source 138/1000:
Source 138 took 3.847534 s

inverting point source 139/1000:
Source 139 took 3.841110 s

inverting point source 140/1000:
Source 140 took 3.842035 s

inverting point source 141/1000:
Source 141 took 3.841580 s

inverting point source 142/1000:
Source 142 took 3.841964 s

inverting point source 143/1000:
Source 143 took 3.851718 s

inverting point source 144/1000:
Source 144 took 3.841792 s

inverting point source 145/1000:
Source 145 took 3.844296 s

inverting point source 146/1000:
Source 146 took 3.847852 s

inverting point source 147/1000:
Source 147 took 3.844733 s

inverting point source 148/1000:
Source 148 took 3.861265 s

inverting point source 149/1000:
Source 149 took 3.851771 s

inverting point source 150/1000:
Source 150 took 3.844638 s

inverting point source 151/1000:
Source 151 took 3.845659 s

inverting point source 152/1000:
Source 152 took 3.852372 s

inverting point source 153/1000:
Source 153 took 3.847070 s

inverting point source 154/1000:
Source 154 took 3.845203 s

inverting point source 155/1000:
Source 155 took 3.854850 s

inverting point source 156/1000:
Source 156 took 3.840950 s

inverting point source 157/1000:
Source 157 took 3.850012 s

inverting point source 158/1000:
Source 158 took 3.845621 s

inverting point source 159/1000:
Source 159 took 3.844831 s

inverting point source 160/1000:
Source 160 took 3.843264 s

inverting point source 161/1000:
Source 161 took 3.852455 s

inverting point source 162/1000:
Source 162 took 3.844426 s

inverting point source 163/1000:
Source 163 took 3.858119 s

inverting point source 164/1000:
Source 164 took 3.844430 s

inverting point source 165/1000:
Source 165 took 3.865790 s

inverting point source 166/1000:
Source 166 took 3.854332 s

inverting point source 167/1000:
Source 167 took 3.852189 s

inverting point source 168/1000:
Source 168 took 3.842621 s

inverting point source 169/1000:
Source 169 took 3.843478 s

inverting point source 170/1000:
Source 170 took 3.843964 s

inverting point source 171/1000:
Source 171 took 3.845078 s

inverting point source 172/1000:
Source 172 took 3.844057 s

inverting point source 173/1000:
Source 173 took 3.848007 s

inverting point source 174/1000:
Source 174 took 3.853982 s

inverting point source 175/1000:
Source 175 took 3.852254 s

inverting point source 176/1000:
Source 176 took 3.845559 s

inverting point source 177/1000:
Source 177 took 3.845735 s

inverting point source 178/1000:
Source 178 took 3.878981 s

inverting point source 179/1000:
Source 179 took 3.846174 s

inverting point source 180/1000:
Source 180 took 3.844554 s

inverting point source 181/1000:
Source 181 took 3.844467 s

inverting point source 182/1000:
Source 182 took 3.848845 s

inverting point source 183/1000:
Source 183 took 3.842272 s

inverting point source 184/1000:
Source 184 took 3.843916 s

inverting point source 185/1000:
Source 185 took 3.843332 s

inverting point source 186/1000:
Source 186 took 3.842910 s

inverting point source 187/1000:
Source 187 took 3.843921 s

inverting point source 188/1000:
Source 188 took 3.843945 s

inverting point source 189/1000:
Source 189 took 3.840895 s

inverting point source 190/1000:
Source 190 took 3.873473 s

inverting point source 191/1000:
Source 191 took 3.842558 s

inverting point source 192/1000:
Source 192 took 3.848277 s

inverting point source 193/1000:
Source 193 took 3.851362 s

inverting point source 194/1000:
Source 194 took 3.844444 s

inverting point source 195/1000:
Source 195 took 3.846301 s

inverting point source 196/1000:
Source 196 took 3.878358 s

inverting point source 197/1000:
Source 197 took 3.842581 s

inverting point source 198/1000:
Source 198 took 3.848182 s

inverting point source 199/1000:
Source 199 took 3.850378 s

inverting point source 200/1000:
Source 200 took 3.842511 s

inverting point source 201/1000:
Source 201 took 3.848338 s

inverting point source 202/1000:
Source 202 took 3.847073 s

inverting point source 203/1000:
Source 203 took 3.844520 s

inverting point source 204/1000:
Source 204 took 3.845558 s

inverting point source 205/1000:
Source 205 took 3.842510 s

inverting point source 206/1000:
Source 206 took 3.858772 s

inverting point source 207/1000:
Source 207 took 3.843003 s

inverting point source 208/1000:
Source 208 took 3.844263 s

inverting point source 209/1000:
Source 209 took 3.852020 s

inverting point source 210/1000:
Source 210 took 3.845291 s

inverting point source 211/1000:
Source 211 took 3.844020 s

inverting point source 212/1000:
Source 212 took 3.854290 s

inverting point source 213/1000:
Source 213 took 3.846216 s

inverting point source 214/1000:
Source 214 took 3.845785 s

inverting point source 215/1000:
Source 215 took 3.843124 s

inverting point source 216/1000:
Source 216 took 3.849761 s

inverting point source 217/1000:
Source 217 took 3.847556 s

inverting point source 218/1000:
Source 218 took 3.849484 s

inverting point source 219/1000:
Source 219 took 3.884943 s

inverting point source 220/1000:
Source 220 took 3.846057 s

inverting point source 221/1000:
Source 221 took 3.847422 s

inverting point source 222/1000:
Source 222 took 3.847556 s

inverting point source 223/1000:
Source 223 took 3.842340 s

inverting point source 224/1000:
Source 224 took 3.847710 s

inverting point source 225/1000:
Source 225 took 3.848302 s

inverting point source 226/1000:
Source 226 took 3.848531 s

inverting point source 227/1000:
Source 227 took 3.842556 s

inverting point source 228/1000:
Source 228 took 3.845841 s

inverting point source 229/1000:
Source 229 took 3.851879 s

inverting point source 230/1000:
Source 230 took 3.853874 s

inverting point source 231/1000:
Source 231 took 3.852624 s

inverting point source 232/1000:
Source 232 took 3.842505 s

inverting point source 233/1000:
Source 233 took 3.856220 s

inverting point source 234/1000:
Source 234 took 3.847693 s

inverting point source 235/1000:
Source 235 took 3.849877 s

inverting point source 236/1000:
Source 236 took 3.844679 s

inverting point source 237/1000:
Source 237 took 3.856562 s

inverting point source 238/1000:
Source 238 took 3.843614 s

inverting point source 239/1000:
Source 239 took 3.848608 s

inverting point source 240/1000:
Source 240 took 3.843553 s

inverting point source 241/1000:
Source 241 took 3.843168 s

inverting point source 242/1000:
Source 242 took 3.847402 s

inverting point source 243/1000:
Source 243 took 3.841430 s

inverting point source 244/1000:
Source 244 took 3.842713 s

inverting point source 245/1000:
Source 245 took 3.849297 s

inverting point source 246/1000:
Source 246 took 3.884506 s

inverting point source 247/1000:
Source 247 took 3.842267 s

inverting point source 248/1000:
Source 248 took 3.840210 s

inverting point source 249/1000:
Source 249 took 3.844626 s

inverting point source 250/1000:
Source 250 took 3.841833 s

inverting point source 251/1000:
Source 251 took 3.852113 s

inverting point source 252/1000:
Source 252 took 3.844314 s

inverting point source 253/1000:
Source 253 took 3.843526 s

inverting point source 254/1000:
Source 254 took 3.847873 s

inverting point source 255/1000:
Source 255 took 3.846143 s

inverting point source 256/1000:
Source 256 took 3.850322 s

inverting point source 257/1000:
Source 257 took 3.846844 s

inverting point source 258/1000:
Source 258 took 3.874282 s

inverting point source 259/1000:
Source 259 took 3.845778 s

inverting point source 260/1000:
Source 260 took 3.853898 s

inverting point source 261/1000:
Source 261 took 3.881618 s

inverting point source 262/1000:
Source 262 took 3.843451 s

inverting point source 263/1000:
Source 263 took 3.842860 s

inverting point source 264/1000:
Source 264 took 3.842299 s

inverting point source 265/1000:
Source 265 took 3.906317 s

inverting point source 266/1000:
Source 266 took 3.849044 s

inverting point source 267/1000:
Source 267 took 3.848717 s

inverting point source 268/1000:
Source 268 took 3.854529 s

inverting point source 269/1000:
Source 269 took 3.925881 s

inverting point source 270/1000:
Source 270 took 3.843624 s

inverting point source 271/1000:
Source 271 took 3.844603 s

inverting point source 272/1000:
Source 272 took 3.844282 s

inverting point source 273/1000:
Source 273 took 3.847014 s

inverting point source 274/1000:
Source 274 took 3.856214 s

inverting point source 275/1000:
Source 275 took 3.850375 s

inverting point source 276/1000:
Source 276 took 3.850651 s

inverting point source 277/1000:
Source 277 took 3.844451 s

inverting point source 278/1000:
Source 278 took 3.849225 s

inverting point source 279/1000:
Source 279 took 3.847015 s

inverting point source 280/1000:
Source 280 took 3.852921 s

inverting point source 281/1000:
Source 281 took 3.845213 s

inverting point source 282/1000:
Source 282 took 3.846405 s

inverting point source 283/1000:
Source 283 took 3.874266 s

inverting point source 284/1000:
Source 284 took 3.867579 s

inverting point source 285/1000:
Source 285 took 3.844261 s

inverting point source 286/1000:
Source 286 took 3.849425 s

inverting point source 287/1000:
Source 287 took 3.877981 s

inverting point source 288/1000:
Source 288 took 3.845462 s

inverting point source 289/1000:
Source 289 took 3.852046 s

inverting point source 290/1000:
Source 290 took 4.035340 s

inverting point source 291/1000:
Source 291 took 3.880391 s

inverting point source 292/1000:
Source 292 took 3.852443 s

inverting point source 293/1000:
Source 293 took 3.845075 s

inverting point source 294/1000:
Source 294 took 3.848191 s

inverting point source 295/1000:
Source 295 took 3.845073 s

inverting point source 296/1000:
Source 296 took 3.855517 s

inverting point source 297/1000:
Source 297 took 3.845725 s

inverting point source 298/1000:
Source 298 took 3.844012 s

inverting point source 299/1000:
Source 299 took 3.854830 s

inverting point source 300/1000:
Source 300 took 3.843768 s

inverting point source 301/1000:
Source 301 took 3.850475 s

inverting point source 302/1000:
Source 302 took 3.847923 s

inverting point source 303/1000:
Source 303 took 3.843464 s

inverting point source 304/1000:
Source 304 took 3.846812 s

inverting point source 305/1000:
Source 305 took 3.845921 s

inverting point source 306/1000:
Source 306 took 3.855091 s

inverting point source 307/1000:
Source 307 took 3.846785 s

inverting point source 308/1000:
Source 308 took 3.848088 s

inverting point source 309/1000:
Source 309 took 3.880013 s

inverting point source 310/1000:
Source 310 took 3.879534 s

inverting point source 311/1000:
Source 311 took 3.855402 s

inverting point source 312/1000:
Source 312 took 3.855651 s

inverting point source 313/1000:
Source 313 took 3.844964 s

inverting point source 314/1000:
Source 314 took 3.867859 s

inverting point source 315/1000:
Source 315 took 3.878090 s

inverting point source 316/1000:
Source 316 took 3.849266 s

inverting point source 317/1000:
Source 317 took 3.852944 s

inverting point source 318/1000:
Source 318 took 3.846575 s

inverting point source 319/1000:
Source 319 took 3.846912 s

inverting point source 320/1000:
Source 320 took 3.844493 s

inverting point source 321/1000:
Source 321 took 3.849699 s

inverting point source 322/1000:
Source 322 took 3.859014 s

inverting point source 323/1000:
Source 323 took 3.850819 s

inverting point source 324/1000:
Source 324 took 3.854909 s

inverting point source 325/1000:
Source 325 took 3.854833 s

inverting point source 326/1000:
Source 326 took 3.854684 s

inverting point source 327/1000:
Source 327 took 3.851164 s

inverting point source 328/1000:
Source 328 took 3.848212 s

inverting point source 329/1000:
Source 329 took 3.878155 s

inverting point source 330/1000:
Source 330 took 3.847242 s

inverting point source 331/1000:
Source 331 took 3.860070 s

inverting point source 332/1000:
Source 332 took 3.849508 s

inverting point source 333/1000:
Source 333 took 3.847633 s

inverting point source 334/1000:
Source 334 took 3.843637 s

inverting point source 335/1000:
Source 335 took 3.852298 s

inverting point source 336/1000:
Source 336 took 3.845516 s

inverting point source 337/1000:
Source 337 took 3.875937 s

inverting point source 338/1000:
Source 338 took 3.866836 s

inverting point source 339/1000:
Source 339 took 3.846529 s

inverting point source 340/1000:
Source 340 took 3.857000 s

inverting point source 341/1000:
Source 341 took 3.849147 s

inverting point source 342/1000:
Source 342 took 3.844235 s

inverting point source 343/1000:
Source 343 took 3.889698 s

inverting point source 344/1000:
Source 344 took 3.855706 s

inverting point source 345/1000:
Source 345 took 3.844124 s

inverting point source 346/1000:
Source 346 took 3.851014 s

inverting point source 347/1000:
Source 347 took 3.845130 s

inverting point source 348/1000:
Source 348 took 3.859127 s

inverting point source 349/1000:
Source 349 took 3.878354 s

inverting point source 350/1000:
Source 350 took 3.842039 s

inverting point source 351/1000:
Source 351 took 3.882781 s

inverting point source 352/1000:
Source 352 took 3.848205 s

inverting point source 353/1000:
Source 353 took 3.849006 s

inverting point source 354/1000:
Source 354 took 3.890642 s

inverting point source 355/1000:
Source 355 took 3.854327 s

inverting point source 356/1000:
Source 356 took 3.844780 s

inverting point source 357/1000:
Source 357 took 3.847469 s

inverting point source 358/1000:
Source 358 took 3.848996 s

inverting point source 359/1000:
Source 359 took 3.848400 s

inverting point source 360/1000:
Source 360 took 3.845869 s

inverting point source 361/1000:
Source 361 took 3.844680 s

inverting point source 362/1000:
Source 362 took 3.847435 s

inverting point source 363/1000:
Source 363 took 3.850989 s

inverting point source 364/1000:
Source 364 took 3.845698 s

inverting point source 365/1000:
Source 365 took 3.860966 s

inverting point source 366/1000:
Source 366 took 3.848885 s

inverting point source 367/1000:
Source 367 took 3.873382 s

inverting point source 368/1000:
Source 368 took 3.844827 s

inverting point source 369/1000:
Source 369 took 3.851853 s

inverting point source 370/1000:
Source 370 took 3.850524 s

inverting point source 371/1000:
Source 371 took 3.874077 s

inverting point source 372/1000:
Source 372 took 3.846040 s

inverting point source 373/1000:
Source 373 took 3.857549 s

inverting point source 374/1000:
Source 374 took 3.843779 s

inverting point source 375/1000:
Source 375 took 3.879989 s

inverting point source 376/1000:
Source 376 took 3.844971 s

inverting point source 377/1000:
Source 377 took 3.856703 s

inverting point source 378/1000:
Source 378 took 3.844273 s

inverting point source 379/1000:
Source 379 took 3.849287 s

inverting point source 380/1000:
Source 380 took 3.864956 s

inverting point source 381/1000:
Source 381 took 3.846575 s

inverting point source 382/1000:
Source 382 took 3.850869 s

inverting point source 383/1000:
Source 383 took 3.841524 s

inverting point source 384/1000:
Source 384 took 3.844088 s

inverting point source 385/1000:
Source 385 took 3.850213 s

inverting point source 386/1000:
Source 386 took 3.868394 s

inverting point source 387/1000:
Source 387 took 3.848859 s

inverting point source 388/1000:
Source 388 took 3.850873 s

inverting point source 389/1000:
Source 389 took 3.845038 s

inverting point source 390/1000:
Source 390 took 3.844702 s

inverting point source 391/1000:
Source 391 took 3.843867 s

inverting point source 392/1000:
Source 392 took 3.888141 s

inverting point source 393/1000:
Source 393 took 3.846499 s

inverting point source 394/1000:
Source 394 took 3.868885 s

inverting point source 395/1000:
Source 395 took 3.856940 s

inverting point source 396/1000:
Source 396 took 3.841671 s

inverting point source 397/1000:
Source 397 took 3.846311 s

inverting point source 398/1000:
Source 398 took 3.845841 s

inverting point source 399/1000:
Source 399 took 3.847387 s

inverting point source 400/1000:
Source 400 took 3.848021 s

inverting point source 401/1000:
Source 401 took 3.880586 s

inverting point source 402/1000:
Source 402 took 3.849000 s

inverting point source 403/1000:
Source 403 took 3.845860 s

inverting point source 404/1000:
Source 404 took 3.844759 s

inverting point source 405/1000:
Source 405 took 3.856410 s

inverting point source 406/1000:
Source 406 took 3.847450 s

inverting point source 407/1000:
Source 407 took 3.847559 s

inverting point source 408/1000:
Source 408 took 3.845042 s

inverting point source 409/1000:
Source 409 took 3.844249 s

inverting point source 410/1000:
Source 410 took 3.852094 s

inverting point source 411/1000:
Source 411 took 3.849366 s

inverting point source 412/1000:
Source 412 took 3.877703 s

inverting point source 413/1000:
Source 413 took 3.845079 s

inverting point source 414/1000:
Source 414 took 3.846183 s

inverting point source 415/1000:
Source 415 took 3.850886 s

inverting point source 416/1000:
Source 416 took 4.109833 s

inverting point source 417/1000:
Source 417 took 3.856219 s

inverting point source 418/1000:
Source 418 took 3.844593 s

inverting point source 419/1000:
Source 419 took 3.865375 s

inverting point source 420/1000:
Source 420 took 3.857725 s

inverting point source 421/1000:
Source 421 took 3.845914 s

inverting point source 422/1000:
Source 422 took 3.846126 s

inverting point source 423/1000:
Source 423 took 3.851606 s

inverting point source 424/1000:
Source 424 took 3.851168 s

inverting point source 425/1000:
Source 425 took 3.844227 s

inverting point source 426/1000:
Source 426 took 3.878458 s

inverting point source 427/1000:
Source 427 took 3.878995 s

inverting point source 428/1000:
Source 428 took 3.873758 s

inverting point source 429/1000:
Source 429 took 3.845182 s

inverting point source 430/1000:
Source 430 took 3.842776 s

inverting point source 431/1000:
Source 431 took 3.854405 s

inverting point source 432/1000:
Source 432 took 3.854081 s

inverting point source 433/1000:
Source 433 took 3.846769 s

inverting point source 434/1000:
Source 434 took 3.891091 s

inverting point source 435/1000:
Source 435 took 3.844158 s

inverting point source 436/1000:
Source 436 took 3.849172 s

inverting point source 437/1000:
Source 437 took 3.842605 s

inverting point source 438/1000:
Source 438 took 3.843378 s

inverting point source 439/1000:
Source 439 took 3.858816 s

inverting point source 440/1000:
Source 440 took 3.849787 s

inverting point source 441/1000:
Source 441 took 3.856795 s

inverting point source 442/1000:
Source 442 took 3.849401 s

inverting point source 443/1000:
Source 443 took 3.844508 s

inverting point source 444/1000:
Source 444 took 3.844815 s

inverting point source 445/1000:
Source 445 took 3.886265 s

inverting point source 446/1000:
Source 446 took 3.867549 s

inverting point source 447/1000:
Source 447 took 3.849187 s

inverting point source 448/1000:
Source 448 took 3.847226 s

inverting point source 449/1000:
Source 449 took 3.852858 s

inverting point source 450/1000:
Source 450 took 3.844789 s

inverting point source 451/1000:
Source 451 took 3.849502 s

inverting point source 452/1000:
Source 452 took 3.842907 s

inverting point source 453/1000:
Source 453 took 3.845425 s

inverting point source 454/1000:
Source 454 took 3.846843 s

inverting point source 455/1000:
Source 455 took 3.851081 s

inverting point source 456/1000:
Source 456 took 3.848516 s

inverting point source 457/1000:
Source 457 took 3.842117 s

inverting point source 458/1000:
Source 458 took 3.844893 s

inverting point source 459/1000:
Source 459 took 3.846073 s

inverting point source 460/1000:
Source 460 took 3.852211 s

inverting point source 461/1000:
Source 461 took 3.885148 s

inverting point source 462/1000:
Source 462 took 3.850001 s

inverting point source 463/1000:
Source 463 took 3.843481 s

inverting point source 464/1000:
Source 464 took 3.879157 s

inverting point source 465/1000:
Source 465 took 3.846157 s

inverting point source 466/1000:
Source 466 took 3.845969 s

inverting point source 467/1000:
Source 467 took 3.846738 s

inverting point source 468/1000:
Source 468 took 3.842388 s

inverting point source 469/1000:
Source 469 took 3.854249 s

inverting point source 470/1000:
Source 470 took 3.845743 s

inverting point source 471/1000:
Source 471 took 3.845285 s

inverting point source 472/1000:
Source 472 took 3.849021 s

inverting point source 473/1000:
Source 473 took 3.844952 s

inverting point source 474/1000:
Source 474 took 3.852842 s

inverting point source 475/1000:
Source 475 took 3.843281 s

inverting point source 476/1000:
Source 476 took 3.873297 s

inverting point source 477/1000:
Source 477 took 3.845628 s

inverting point source 478/1000:
Source 478 took 3.857988 s

inverting point source 479/1000:
Source 479 took 3.851005 s

inverting point source 480/1000:
Source 480 took 3.844646 s

inverting point source 481/1000:
Source 481 took 3.848007 s

inverting point source 482/1000:
Source 482 took 3.863437 s

inverting point source 483/1000:
Source 483 took 3.842325 s

inverting point source 484/1000:
Source 484 took 3.846842 s

inverting point source 485/1000:
Source 485 took 3.875128 s

inverting point source 486/1000:
Source 486 took 3.848522 s

inverting point source 487/1000:
Source 487 took 3.844703 s

inverting point source 488/1000:
Source 488 took 3.842647 s

inverting point source 489/1000:
Source 489 took 3.853266 s

inverting point source 490/1000:
Source 490 took 3.843885 s

inverting point source 491/1000:
Source 491 took 3.845155 s

inverting point source 492/1000:
Source 492 took 3.878208 s

inverting point source 493/1000:
Source 493 took 3.846401 s

inverting point source 494/1000:
Source 494 took 3.846756 s

inverting point source 495/1000:
Source 495 took 3.843401 s

inverting point source 496/1000:
Source 496 took 3.843142 s

inverting point source 497/1000:
Source 497 took 3.850623 s

inverting point source 498/1000:
Source 498 took 3.841611 s

inverting point source 499/1000:
Source 499 took 3.855067 s

inverting point source 500/1000:
Source 500 took 3.848230 s

inverting point source 501/1000:
Source 501 took 3.849602 s

inverting point source 502/1000:
Source 502 took 3.845217 s

inverting point source 503/1000:
Source 503 took 3.844709 s

inverting point source 504/1000:
Source 504 took 3.844525 s

inverting point source 505/1000:
Source 505 took 3.870868 s

inverting point source 506/1000:
Source 506 took 3.843782 s

inverting point source 507/1000:
Source 507 took 3.843570 s

inverting point source 508/1000:
Source 508 took 3.882219 s

inverting point source 509/1000:
Source 509 took 3.912204 s

inverting point source 510/1000:
Source 510 took 3.846128 s

inverting point source 511/1000:
Source 511 took 3.843112 s

inverting point source 512/1000:
Source 512 took 3.852028 s

inverting point source 513/1000:
Source 513 took 3.847273 s

inverting point source 514/1000:
Source 514 took 3.843839 s

inverting point source 515/1000:
Source 515 took 3.854753 s

inverting point source 516/1000:
Source 516 took 3.875670 s

inverting point source 517/1000:
Source 517 took 3.862549 s

inverting point source 518/1000:
Source 518 took 3.851435 s

inverting point source 519/1000:
Source 519 took 3.846017 s

inverting point source 520/1000:
Source 520 took 3.847314 s

inverting point source 521/1000:
Source 521 took 3.845481 s

inverting point source 522/1000:
Source 522 took 3.845501 s

inverting point source 523/1000:
Source 523 took 3.844489 s

inverting point source 524/1000:
Source 524 took 3.852929 s

inverting point source 525/1000:
Source 525 took 3.906841 s

inverting point source 526/1000:
Source 526 took 3.848144 s

inverting point source 527/1000:
Source 527 took 3.850175 s

inverting point source 528/1000:
Source 528 took 3.849717 s

inverting point source 529/1000:
Source 529 took 3.850061 s

inverting point source 530/1000:
Source 530 took 3.857204 s

inverting point source 531/1000:
Source 531 took 3.845668 s

inverting point source 532/1000:
Source 532 took 3.844717 s

inverting point source 533/1000:
Source 533 took 3.853999 s

inverting point source 534/1000:
Source 534 took 3.848554 s

inverting point source 535/1000:
Source 535 took 3.853004 s

inverting point source 536/1000:
Source 536 took 3.848100 s

inverting point source 537/1000:
Source 537 took 3.845478 s

inverting point source 538/1000:
Source 538 took 3.845282 s

inverting point source 539/1000:
Source 539 took 3.843327 s

inverting point source 540/1000:
Source 540 took 3.846017 s

inverting point source 541/1000:
Source 541 took 3.844346 s

inverting point source 542/1000:
Source 542 took 3.843973 s

inverting point source 543/1000:
Source 543 took 3.848552 s

inverting point source 544/1000:
Source 544 took 3.842398 s

inverting point source 545/1000:
Source 545 took 3.844832 s

inverting point source 546/1000:
Source 546 took 3.878274 s

inverting point source 547/1000:
Source 547 took 3.856628 s

inverting point source 548/1000:
Source 548 took 3.857595 s

inverting point source 549/1000:
Source 549 took 3.844308 s

inverting point source 550/1000:
Source 550 took 3.874263 s

inverting point source 551/1000:
Source 551 took 3.874382 s

inverting point source 552/1000:
Source 552 took 3.844977 s

inverting point source 553/1000:
Source 553 took 3.848159 s

inverting point source 554/1000:
Source 554 took 3.848979 s

inverting point source 555/1000:
Source 555 took 3.853899 s

inverting point source 556/1000:
Source 556 took 3.845224 s

inverting point source 557/1000:
Source 557 took 3.844955 s

inverting point source 558/1000:
Source 558 took 3.843083 s

inverting point source 559/1000:
Source 559 took 3.855530 s

inverting point source 560/1000:
Source 560 took 3.842236 s

inverting point source 561/1000:
Source 561 took 3.847340 s

inverting point source 562/1000:
Source 562 took 3.846119 s

inverting point source 563/1000:
Source 563 took 3.843946 s

inverting point source 564/1000:
Source 564 took 3.856585 s

inverting point source 565/1000:
Source 565 took 3.848367 s

inverting point source 566/1000:
Source 566 took 3.851408 s

inverting point source 567/1000:
Source 567 took 3.850514 s

inverting point source 568/1000:
Source 568 took 3.844468 s

inverting point source 569/1000:
Source 569 took 3.849275 s

inverting point source 570/1000:
Source 570 took 3.843536 s

inverting point source 571/1000:
Source 571 took 3.845353 s

inverting point source 572/1000:
Source 572 took 3.852589 s

inverting point source 573/1000:
Source 573 took 3.847628 s

inverting point source 574/1000:
Source 574 took 3.843663 s

inverting point source 575/1000:
Source 575 took 3.854296 s

inverting point source 576/1000:
Source 576 took 3.851307 s

inverting point source 577/1000:
Source 577 took 3.842093 s

inverting point source 578/1000:
Source 578 took 3.843795 s

inverting point source 579/1000:
Source 579 took 3.847564 s

inverting point source 580/1000:
Source 580 took 3.848622 s

inverting point source 581/1000:
Source 581 took 3.843280 s

inverting point source 582/1000:
Source 582 took 3.844783 s

inverting point source 583/1000:
Source 583 took 3.843835 s

inverting point source 584/1000:
Source 584 took 3.870226 s

inverting point source 585/1000:
Source 585 took 3.845500 s

inverting point source 586/1000:
Source 586 took 3.844045 s

inverting point source 587/1000:
Source 587 took 3.847012 s

inverting point source 588/1000:
Source 588 took 3.844237 s

inverting point source 589/1000:
Source 589 took 3.843649 s

inverting point source 590/1000:
Source 590 took 3.854249 s

inverting point source 591/1000:
Source 591 took 3.844805 s

inverting point source 592/1000:
Source 592 took 3.846020 s

inverting point source 593/1000:
Source 593 took 3.851635 s

inverting point source 594/1000:
Source 594 took 3.851034 s

inverting point source 595/1000:
Source 595 took 3.850717 s

inverting point source 596/1000:
Source 596 took 3.845685 s

inverting point source 597/1000:
Source 597 took 3.853351 s

inverting point source 598/1000:
Source 598 took 3.844858 s

inverting point source 599/1000:
Source 599 took 3.856887 s

inverting point source 600/1000:
Source 600 took 3.844210 s

inverting point source 601/1000:
Source 601 took 3.849123 s

inverting point source 602/1000:
Source 602 took 3.843184 s

inverting point source 603/1000:
Source 603 took 3.849907 s

inverting point source 604/1000:
Source 604 took 3.849502 s

inverting point source 605/1000:
Source 605 took 3.847887 s

inverting point source 606/1000:
Source 606 took 3.848474 s

inverting point source 607/1000:
Source 607 took 3.846205 s

inverting point source 608/1000:
Source 608 took 3.845164 s

inverting point source 609/1000:
Source 609 took 3.845387 s

inverting point source 610/1000:
Source 610 took 3.848043 s

inverting point source 611/1000:
Source 611 took 3.848355 s

inverting point source 612/1000:
Source 612 took 3.871605 s

inverting point source 613/1000:
Source 613 took 3.845372 s

inverting point source 614/1000:
Source 614 took 3.846409 s

inverting point source 615/1000:
Source 615 took 3.844143 s

inverting point source 616/1000:
Source 616 took 3.845347 s

inverting point source 617/1000:
Source 617 took 3.886760 s

inverting point source 618/1000:
Source 618 took 3.861720 s

inverting point source 619/1000:
Source 619 took 3.849608 s

inverting point source 620/1000:
Source 620 took 3.882911 s

inverting point source 621/1000:
Source 621 took 3.853170 s

inverting point source 622/1000:
Source 622 took 3.843596 s

inverting point source 623/1000:
Source 623 took 3.853121 s

inverting point source 624/1000:
Source 624 took 3.863684 s

inverting point source 625/1000:
Source 625 took 3.851841 s

inverting point source 626/1000:
Source 626 took 3.853818 s

inverting point source 627/1000:
Source 627 took 3.874313 s

inverting point source 628/1000:
Source 628 took 3.844558 s

inverting point source 629/1000:
Source 629 took 3.844430 s

inverting point source 630/1000:
Source 630 took 3.850126 s

inverting point source 631/1000:
Source 631 took 3.847437 s

inverting point source 632/1000:
Source 632 took 3.847550 s

inverting point source 633/1000:
Source 633 took 3.848212 s

inverting point source 634/1000:
Source 634 took 3.848654 s

inverting point source 635/1000:
Source 635 took 3.855773 s

inverting point source 636/1000:
Source 636 took 3.849461 s

inverting point source 637/1000:
Source 637 took 3.878108 s

inverting point source 638/1000:
Source 638 took 3.854004 s

inverting point source 639/1000:
Source 639 took 3.844457 s

inverting point source 640/1000:
Source 640 took 3.859483 s

inverting point source 641/1000:
Source 641 took 3.968544 s

inverting point source 642/1000:
Source 642 took 3.853123 s

inverting point source 643/1000:
Source 643 took 3.847968 s

inverting point source 644/1000:
Source 644 took 3.851095 s

inverting point source 645/1000:
Source 645 took 3.851234 s

inverting point source 646/1000:
Source 646 took 3.844156 s

inverting point source 647/1000:
Source 647 took 3.844614 s

inverting point source 648/1000:
Source 648 took 3.878373 s

inverting point source 649/1000:
Source 649 took 3.854040 s

inverting point source 650/1000:
Source 650 took 3.844846 s

inverting point source 651/1000:
Source 651 took 3.848063 s

inverting point source 652/1000:
Source 652 took 3.853428 s

inverting point source 653/1000:
Source 653 took 3.846326 s

inverting point source 654/1000:
Source 654 took 3.849808 s

inverting point source 655/1000:
Source 655 took 3.852298 s

inverting point source 656/1000:
Source 656 took 3.876882 s

inverting point source 657/1000:
Source 657 took 3.878672 s

inverting point source 658/1000:
Source 658 took 3.849192 s

inverting point source 659/1000:
Source 659 took 3.846534 s

inverting point source 660/1000:
Source 660 took 3.845300 s

inverting point source 661/1000:
Source 661 took 3.844770 s

inverting point source 662/1000:
Source 662 took 3.845333 s

inverting point source 663/1000:
Source 663 took 3.847315 s

inverting point source 664/1000:
Source 664 took 3.853789 s

inverting point source 665/1000:
Source 665 took 3.848307 s

inverting point source 666/1000:
Source 666 took 3.847521 s

inverting point source 667/1000:
Source 667 took 3.846557 s

inverting point source 668/1000:
Source 668 took 3.848653 s

inverting point source 669/1000:
Source 669 took 3.844089 s

inverting point source 670/1000:
Source 670 took 3.846178 s

inverting point source 671/1000:
Source 671 took 3.843869 s

inverting point source 672/1000:
Source 672 took 3.861190 s

inverting point source 673/1000:
Source 673 took 3.848959 s

inverting point source 674/1000:
Source 674 took 3.844806 s

inverting point source 675/1000:
Source 675 took 3.845289 s

inverting point source 676/1000:
Source 676 took 3.844359 s

inverting point source 677/1000:
Source 677 took 3.854036 s

inverting point source 678/1000:
Source 678 took 3.853753 s

inverting point source 679/1000:
Source 679 took 3.851456 s

inverting point source 680/1000:
Source 680 took 3.844881 s

inverting point source 681/1000:
Source 681 took 3.851595 s

inverting point source 682/1000:
Source 682 took 3.846588 s

inverting point source 683/1000:
Source 683 took 3.843636 s

inverting point source 684/1000:
Source 684 took 3.851255 s

inverting point source 685/1000:
Source 685 took 3.845703 s

inverting point source 686/1000:
Source 686 took 3.844470 s

inverting point source 687/1000:
Source 687 took 3.856271 s

inverting point source 688/1000:
Source 688 took 3.845077 s

inverting point source 689/1000:
Source 689 took 3.846115 s

inverting point source 690/1000:
Source 690 took 3.844263 s

inverting point source 691/1000:
Source 691 took 3.844423 s

inverting point source 692/1000:
Source 692 took 3.846208 s

inverting point source 693/1000:
Source 693 took 3.847904 s

inverting point source 694/1000:
Source 694 took 3.899735 s

inverting point source 695/1000:
Source 695 took 3.846131 s

inverting point source 696/1000:
Source 696 took 3.851258 s

inverting point source 697/1000:
Source 697 took 3.845569 s

inverting point source 698/1000:
Source 698 took 3.847365 s

inverting point source 699/1000:
Source 699 took 3.844901 s

inverting point source 700/1000:
Source 700 took 3.844221 s

inverting point source 701/1000:
Source 701 took 3.848525 s

inverting point source 702/1000:
Source 702 took 3.846205 s

inverting point source 703/1000:
Source 703 took 3.846563 s

inverting point source 704/1000:
Source 704 took 3.858136 s

inverting point source 705/1000:
Source 705 took 3.845877 s

inverting point source 706/1000:
Source 706 took 3.854078 s

inverting point source 707/1000:
Source 707 took 3.846416 s

inverting point source 708/1000:
Source 708 took 3.871625 s

inverting point source 709/1000:
Source 709 took 3.845712 s

inverting point source 710/1000:
Source 710 took 3.844704 s

inverting point source 711/1000:
Source 711 took 3.854010 s

inverting point source 712/1000:
Source 712 took 3.863508 s

inverting point source 713/1000:
Source 713 took 3.844254 s

inverting point source 714/1000:
Source 714 took 3.845486 s

inverting point source 715/1000:
Source 715 took 3.879559 s

inverting point source 716/1000:
Source 716 took 3.853893 s

inverting point source 717/1000:
Source 717 took 3.843878 s

inverting point source 718/1000:
Source 718 took 3.844781 s

inverting point source 719/1000:
Source 719 took 3.844818 s

inverting point source 720/1000:
Source 720 took 3.846290 s

inverting point source 721/1000:
Source 721 took 3.846953 s

inverting point source 722/1000:
Source 722 took 3.879054 s

inverting point source 723/1000:
Source 723 took 3.939299 s

inverting point source 724/1000:
Source 724 took 3.982720 s

inverting point source 725/1000:
Source 725 took 3.858401 s

inverting point source 726/1000:
Source 726 took 3.881527 s

inverting point source 727/1000:
Source 727 took 3.849065 s

inverting point source 728/1000:
Source 728 took 3.843721 s

inverting point source 729/1000:
Source 729 took 3.844746 s

inverting point source 730/1000:
Source 730 took 3.845461 s

inverting point source 731/1000:
Source 731 took 3.845557 s

inverting point source 732/1000:
Source 732 took 3.842762 s

inverting point source 733/1000:
Source 733 took 3.845314 s

inverting point source 734/1000:
Source 734 took 3.843191 s

inverting point source 735/1000:
Source 735 took 3.848858 s

inverting point source 736/1000:
Source 736 took 3.844829 s

inverting point source 737/1000:
Source 737 took 3.850003 s

inverting point source 738/1000:
Source 738 took 3.844168 s

inverting point source 739/1000:
Source 739 took 3.843615 s

inverting point source 740/1000:
Source 740 took 3.843232 s

inverting point source 741/1000:
Source 741 took 3.846630 s

inverting point source 742/1000:
Source 742 took 3.875866 s

inverting point source 743/1000:
Source 743 took 3.849838 s

inverting point source 744/1000:
Source 744 took 3.844897 s

inverting point source 745/1000:
Source 745 took 3.843038 s

inverting point source 746/1000:
Source 746 took 3.843766 s

inverting point source 747/1000:
Source 747 took 3.848125 s

inverting point source 748/1000:
Source 748 took 3.847738 s

inverting point source 749/1000:
Source 749 took 3.844387 s

inverting point source 750/1000:
Source 750 took 3.844218 s

inverting point source 751/1000:
Source 751 took 3.848387 s

inverting point source 752/1000:
Source 752 took 3.846295 s

inverting point source 753/1000:
Source 753 took 3.844245 s

inverting point source 754/1000:
Source 754 took 3.844838 s

inverting point source 755/1000:
Source 755 took 3.845316 s

inverting point source 756/1000:
Source 756 took 3.846807 s

inverting point source 757/1000:
Source 757 took 3.851281 s

inverting point source 758/1000:
Source 758 took 3.850922 s

inverting point source 759/1000:
Source 759 took 3.843817 s

inverting point source 760/1000:
Source 760 took 3.843812 s

inverting point source 761/1000:
Source 761 took 3.843013 s

inverting point source 762/1000:
Source 762 took 3.845760 s

inverting point source 763/1000:
Source 763 took 3.845594 s

inverting point source 764/1000:
Source 764 took 3.842953 s

inverting point source 765/1000:
Source 765 took 3.850497 s

inverting point source 766/1000:
Source 766 took 3.853078 s

inverting point source 767/1000:
Source 767 took 3.851214 s

inverting point source 768/1000:
Source 768 took 3.846222 s

inverting point source 769/1000:
Source 769 took 3.842295 s

inverting point source 770/1000:
Source 770 took 3.844043 s

inverting point source 771/1000:
Source 771 took 3.844563 s

inverting point source 772/1000:
Source 772 took 3.847266 s

inverting point source 773/1000:
Source 773 took 3.844605 s

inverting point source 774/1000:
Source 774 took 3.855149 s

inverting point source 775/1000:
Source 775 took 3.846710 s

inverting point source 776/1000:
Source 776 took 3.848147 s

inverting point source 777/1000:
Source 777 took 3.846479 s

inverting point source 778/1000:
Source 778 took 3.844070 s

inverting point source 779/1000:
Source 779 took 3.860638 s

inverting point source 780/1000:
Source 780 took 3.843458 s

inverting point source 781/1000:
Source 781 took 3.921664 s

inverting point source 782/1000:
Source 782 took 3.843651 s

inverting point source 783/1000:
Source 783 took 3.874897 s

inverting point source 784/1000:
Source 784 took 3.844297 s

inverting point source 785/1000:
Source 785 took 3.847903 s

inverting point source 786/1000:
Source 786 took 3.857783 s

inverting point source 787/1000:
Source 787 took 3.844420 s

inverting point source 788/1000:
Source 788 took 3.847088 s

inverting point source 789/1000:
Source 789 took 3.854272 s

inverting point source 790/1000:
Source 790 took 3.857043 s

inverting point source 791/1000:
Source 791 took 3.850506 s

inverting point source 792/1000:
Source 792 took 3.846252 s

inverting point source 793/1000:
Source 793 took 3.842777 s

inverting point source 794/1000:
Source 794 took 3.844765 s

inverting point source 795/1000:
Source 795 took 3.849673 s

inverting point source 796/1000:
Source 796 took 3.846360 s

inverting point source 797/1000:
Source 797 took 3.858685 s

inverting point source 798/1000:
Source 798 took 3.861554 s

inverting point source 799/1000:
Source 799 took 3.846196 s

inverting point source 800/1000:
Source 800 took 3.844995 s

inverting point source 801/1000:
Source 801 took 3.858797 s

inverting point source 802/1000:
Source 802 took 3.850631 s

inverting point source 803/1000:
Source 803 took 3.844428 s

inverting point source 804/1000:
Source 804 took 3.842059 s

inverting point source 805/1000:
Source 805 took 3.848066 s

inverting point source 806/1000:
Source 806 took 3.855343 s

inverting point source 807/1000:
Source 807 took 3.849550 s

inverting point source 808/1000:
Source 808 took 3.874578 s

inverting point source 809/1000:
Source 809 took 3.844734 s

inverting point source 810/1000:
Source 810 took 3.845924 s

inverting point source 811/1000:
Source 811 took 3.843113 s

inverting point source 812/1000:
Source 812 took 3.847034 s

inverting point source 813/1000:
Source 813 took 3.856691 s

inverting point source 814/1000:
Source 814 took 3.981083 s

inverting point source 815/1000:
Source 815 took 3.853249 s

inverting point source 816/1000:
Source 816 took 3.846841 s

inverting point source 817/1000:
Source 817 took 3.843162 s

inverting point source 818/1000:
Source 818 took 3.912258 s

inverting point source 819/1000:
Source 819 took 3.844769 s

inverting point source 820/1000:
Source 820 took 3.853976 s

inverting point source 821/1000:
Source 821 took 3.848012 s

inverting point source 822/1000:
Source 822 took 3.845503 s

inverting point source 823/1000:
Source 823 took 3.846475 s

inverting point source 824/1000:
Source 824 took 3.849322 s

inverting point source 825/1000:
Source 825 took 3.843461 s

inverting point source 826/1000:
Source 826 took 3.844756 s

inverting point source 827/1000:
Source 827 took 3.855616 s

inverting point source 828/1000:
Source 828 took 3.842687 s

inverting point source 829/1000:
Source 829 took 3.876016 s

inverting point source 830/1000:
Source 830 took 3.844492 s

inverting point source 831/1000:
Source 831 took 3.845228 s

inverting point source 832/1000:
Source 832 took 3.844121 s

inverting point source 833/1000:
Source 833 took 3.885799 s

inverting point source 834/1000:
Source 834 took 3.843390 s

inverting point source 835/1000:
Source 835 took 3.852952 s

inverting point source 836/1000:
Source 836 took 3.846036 s

inverting point source 837/1000:
Source 837 took 3.847310 s

inverting point source 838/1000:
Source 838 took 3.844404 s

inverting point source 839/1000:
Source 839 took 3.845799 s

inverting point source 840/1000:
Source 840 took 3.843485 s

inverting point source 841/1000:
Source 841 took 3.846215 s

inverting point source 842/1000:
Source 842 took 3.843904 s

inverting point source 843/1000:
Source 843 took 3.851284 s

inverting point source 844/1000:
Source 844 took 3.848704 s

inverting point source 845/1000:
Source 845 took 3.859792 s

inverting point source 846/1000:
Source 846 took 3.846089 s

inverting point source 847/1000:
Source 847 took 3.843345 s

inverting point source 848/1000:
Source 848 took 3.845001 s

inverting point source 849/1000:
Source 849 took 3.846479 s

inverting point source 850/1000:
Source 850 took 3.843359 s

inverting point source 851/1000:
Source 851 took 3.854917 s

inverting point source 852/1000:
Source 852 took 3.878332 s

inverting point source 853/1000:
Source 853 took 3.843061 s

inverting point source 854/1000:
Source 854 took 3.847009 s

inverting point source 855/1000:
Source 855 took 3.843471 s

inverting point source 856/1000:
Source 856 took 3.845094 s

inverting point source 857/1000:
Source 857 took 3.844133 s

inverting point source 858/1000:
Source 858 took 3.842990 s

inverting point source 859/1000:
Source 859 took 3.843598 s

inverting point source 860/1000:
Source 860 took 3.848003 s

inverting point source 861/1000:
Source 861 took 3.844648 s

inverting point source 862/1000:
Source 862 took 3.843127 s

inverting point source 863/1000:
Source 863 took 3.898082 s

inverting point source 864/1000:
Source 864 took 3.875166 s

inverting point source 865/1000:
Source 865 took 3.843065 s

inverting point source 866/1000:
Source 866 took 3.844820 s

inverting point source 867/1000:
Source 867 took 3.852725 s

inverting point source 868/1000:
Source 868 took 3.851478 s

inverting point source 869/1000:
Source 869 took 3.844733 s

inverting point source 870/1000:
Source 870 took 3.852017 s

inverting point source 871/1000:
Source 871 took 3.843762 s

inverting point source 872/1000:
Source 872 took 3.846640 s

inverting point source 873/1000:
Source 873 took 3.845648 s

inverting point source 874/1000:
Source 874 took 3.845476 s

inverting point source 875/1000:
Source 875 took 3.883331 s

inverting point source 876/1000:
Source 876 took 3.844258 s

inverting point source 877/1000:
Source 877 took 3.846591 s

inverting point source 878/1000:
Source 878 took 3.846960 s

inverting point source 879/1000:
Source 879 took 3.844096 s

inverting point source 880/1000:
Source 880 took 3.844607 s

inverting point source 881/1000:
Source 881 took 3.846538 s

inverting point source 882/1000:
Source 882 took 3.846445 s

inverting point source 883/1000:
Source 883 took 3.847850 s

inverting point source 884/1000:
Source 884 took 3.846179 s

inverting point source 885/1000:
Source 885 took 3.844228 s

inverting point source 886/1000:
Source 886 took 3.856873 s

inverting point source 887/1000:
Source 887 took 3.843140 s

inverting point source 888/1000:
Source 888 took 3.850789 s

inverting point source 889/1000:
Source 889 took 3.853979 s

inverting point source 890/1000:
Source 890 took 3.844759 s

inverting point source 891/1000:
Source 891 took 3.862476 s

inverting point source 892/1000:
Source 892 took 3.854756 s

inverting point source 893/1000:
Source 893 took 3.843199 s

inverting point source 894/1000:
Source 894 took 3.872009 s

inverting point source 895/1000:
Source 895 took 3.844319 s

inverting point source 896/1000:
Source 896 took 3.845097 s

inverting point source 897/1000:
Source 897 took 3.845191 s

inverting point source 898/1000:
Source 898 took 3.846856 s

inverting point source 899/1000:
Source 899 took 3.846795 s

inverting point source 900/1000:
Source 900 took 3.841892 s

inverting point source 901/1000:
Source 901 took 3.854607 s

inverting point source 902/1000:
Source 902 took 3.845609 s

inverting point source 903/1000:
Source 903 took 3.865120 s

inverting point source 904/1000:
Source 904 took 3.852293 s

inverting point source 905/1000:
Source 905 took 3.844671 s

inverting point source 906/1000:
Source 906 took 3.875488 s

inverting point source 907/1000:
Source 907 took 3.842500 s

inverting point source 908/1000:
Source 908 took 3.851571 s

inverting point source 909/1000:
Source 909 took 3.850764 s

inverting point source 910/1000:
Source 910 took 3.843341 s

inverting point source 911/1000:
Source 911 took 3.856319 s

inverting point source 912/1000:
Source 912 took 3.846049 s

inverting point source 913/1000:
Source 913 took 3.843872 s

inverting point source 914/1000:
Source 914 took 3.844620 s

inverting point source 915/1000:
Source 915 took 3.842606 s

inverting point source 916/1000:
Source 916 took 3.914786 s

inverting point source 917/1000:
Source 917 took 3.882748 s

inverting point source 918/1000:
Source 918 took 3.854793 s

inverting point source 919/1000:
Source 919 took 3.848904 s

inverting point source 920/1000:
Source 920 took 3.845222 s

inverting point source 921/1000:
Source 921 took 3.848059 s

inverting point source 922/1000:
Source 922 took 3.855575 s

inverting point source 923/1000:
Source 923 took 3.846262 s

inverting point source 924/1000:
Source 924 took 3.856297 s

inverting point source 925/1000:
Source 925 took 3.844090 s

inverting point source 926/1000:
Source 926 took 3.844903 s

inverting point source 927/1000:
Source 927 took 3.845213 s

inverting point source 928/1000:
Source 928 took 3.874202 s

inverting point source 929/1000:
Source 929 took 3.845703 s

inverting point source 930/1000:
Source 930 took 3.852304 s

inverting point source 931/1000:
Source 931 took 3.845604 s

inverting point source 932/1000:
Source 932 took 3.845230 s

inverting point source 933/1000:
Source 933 took 3.842948 s

inverting point source 934/1000:
Source 934 took 3.843090 s

inverting point source 935/1000:
Source 935 took 3.842392 s

inverting point source 936/1000:
Source 936 took 3.847123 s

inverting point source 937/1000:
Source 937 took 3.853655 s

inverting point source 938/1000:
Source 938 took 3.885517 s

inverting point source 939/1000:
Source 939 took 3.845888 s

inverting point source 940/1000:
Source 940 took 3.845603 s

inverting point source 941/1000:
Source 941 took 3.868913 s

inverting point source 942/1000:
Source 942 took 3.867426 s

inverting point source 943/1000:
Source 943 took 3.845232 s

inverting point source 944/1000:
Source 944 took 3.843859 s

inverting point source 945/1000:
Source 945 took 3.849021 s

inverting point source 946/1000:
Source 946 took 3.886821 s

inverting point source 947/1000:
Source 947 took 3.896865 s

inverting point source 948/1000:
Source 948 took 3.848146 s

inverting point source 949/1000:
Source 949 took 3.844220 s

inverting point source 950/1000:
Source 950 took 3.846696 s

inverting point source 951/1000:
Source 951 took 3.840909 s

inverting point source 952/1000:
Source 952 took 3.843618 s

inverting point source 953/1000:
Source 953 took 3.853621 s

inverting point source 954/1000:
Source 954 took 3.844655 s

inverting point source 955/1000:
Source 955 took 3.843512 s

inverting point source 956/1000:
Source 956 took 3.847282 s

inverting point source 957/1000:
Source 957 took 3.841674 s

inverting point source 958/1000:
Source 958 took 3.843207 s

inverting point source 959/1000:
Source 959 took 3.842710 s

inverting point source 960/1000:
Source 960 took 3.872102 s

inverting point source 961/1000:
Source 961 took 3.848439 s

inverting point source 962/1000:
Source 962 took 3.889782 s

inverting point source 963/1000:
Source 963 took 3.854895 s

inverting point source 964/1000:
Source 964 took 3.860360 s

inverting point source 965/1000:
Source 965 took 3.877500 s

inverting point source 966/1000:
Source 966 took 3.846550 s

inverting point source 967/1000:
Source 967 took 3.863669 s

inverting point source 968/1000:
Source 968 took 3.847090 s

inverting point source 969/1000:
Source 969 took 3.848312 s

inverting point source 970/1000:
Source 970 took 3.849057 s

inverting point source 971/1000:
Source 971 took 3.844304 s

inverting point source 972/1000:
Source 972 took 3.851557 s

inverting point source 973/1000:
Source 973 took 3.846179 s

inverting point source 974/1000:
Source 974 took 3.845325 s

inverting point source 975/1000:
Source 975 took 3.850065 s

inverting point source 976/1000:
Source 976 took 3.857469 s

inverting point source 977/1000:
Source 977 took 3.853581 s

inverting point source 978/1000:
Source 978 took 3.845731 s

inverting point source 979/1000:
Source 979 took 3.846635 s

inverting point source 980/1000:
Source 980 took 3.844697 s

inverting point source 981/1000:
Source 981 took 3.848192 s

inverting point source 982/1000:
Source 982 took 3.848447 s

inverting point source 983/1000:
Source 983 took 3.846118 s

inverting point source 984/1000:
Source 984 took 3.852648 s

inverting point source 985/1000:
Source 985 took 3.847676 s

inverting point source 986/1000:
Source 986 took 3.854007 s

inverting point source 987/1000:
Source 987 took 3.846340 s

inverting point source 988/1000:
Source 988 took 3.847178 s

inverting point source 989/1000:
Source 989 took 3.845795 s

inverting point source 990/1000:
Source 990 took 3.846518 s

inverting point source 991/1000:
Source 991 took 3.846932 s

inverting point source 992/1000:
Source 992 took 3.850613 s

inverting point source 993/1000:
Source 993 took 3.845179 s

inverting point source 994/1000:
Source 994 took 3.842667 s

inverting point source 995/1000:
Source 995 took 3.881838 s

inverting point source 996/1000:
Source 996 took 3.847585 s

inverting point source 997/1000:
Source 997 took 3.844356 s

inverting point source 998/1000:
Source 998 took 3.845729 s

inverting point source 999/1000:
Source 999 took 3.844337 s

inverting point source 1000/1000:
Source 1000 took 3.847577 s
twopoint took 5.214907e+01 s
Two-point
t  VV
0  ( -5.086729e-05, 0.000000e+00 )
1  ( -9.889270e-06, 0.000000e+00 )
2  ( 1.279778e-05, 0.000000e+00 )
3  ( 7.938498e-06, 0.000000e+00 )
4  ( 1.319526e-06, 0.000000e+00 )
5  ( 3.226521e-06, 0.000000e+00 )
6  ( 4.966929e-06, 0.000000e+00 )
7  ( -6.020459e-06, 0.000000e+00 )
8  ( -6.340966e-06, 0.000000e+00 )
9  ( 2.569630e-06, 0.000000e+00 )
10  ( 6.670788e-06, 0.000000e+00 )
11  ( 1.782095e-06, 0.000000e+00 )
12  ( 4.724971e-07, 0.000000e+00 )
13  ( 6.633715e-06, 0.000000e+00 )
14  ( 3.713412e-06, 0.000000e+00 )
15  ( -2.002423e-06, 0.000000e+00 )
16  ( -3.693088e-06, 0.000000e+00 )
17  ( -3.844781e-06, 0.000000e+00 )
18  ( -2.379181e-06, 0.000000e+00 )
19  ( 2.099794e-06, 0.000000e+00 )
20  ( 4.466064e-06, 0.000000e+00 )
21  ( 4.386145e-06, 0.000000e+00 )
22  ( -2.380551e-06, 0.000000e+00 )
23  ( -9.231042e-06, 0.000000e+00 )
24  ( -8.375558e-06, 0.000000e+00 )
25  ( -1.481458e-06, 0.000000e+00 )
26  ( 4.932318e-07, 0.000000e+00 )
27  ( 4.032983e-06, 0.000000e+00 )
28  ( 1.051101e-05, 0.000000e+00 )
29  ( 3.410571e-06, 0.000000e+00 )
30  ( -6.912331e-06, 0.000000e+00 )
31  ( 7.135193e-07, 0.000000e+00 )
32  ( 3.281512e-06, 0.000000e+00 )
33  ( 7.135193e-07, 0.000000e+00 )
34  ( -6.912331e-06, 0.000000e+00 )
35  ( 3.410571e-06, 0.000000e+00 )
36  ( 1.051101e-05, 0.000000e+00 )
37  ( 4.032983e-06, 0.000000e+00 )
38  ( 4.932318e-07, 0.000000e+00 )
39  ( -1.481458e-06, 0.000000e+00 )
40  ( -8.375558e-06, 0.000000e+00 )
41  ( -9.231042e-06, 0.000000e+00 )
42  ( -2.380551e-06, 0.000000e+00 )
43  ( 4.386145e-06, 0.000000e+00 )
44  ( 4.466064e-06, 0.000000e+00 )
45  ( 2.099794e-06, 0.000000e+00 )
46  ( -2.379181e-06, 0.000000e+00 )
47  ( -3.844781e-06, 0.000000e+00 )
48  ( -3.693088e-06, 0.000000e+00 )
49  ( -2.002423e-06, 0.000000e+00 )
50  ( 3.713412e-06, 0.000000e+00 )
51  ( 6.633715e-06, 0.000000e+00 )
52  ( 4.724971e-07, 0.000000e+00 )
53  ( 1.782095e-06, 0.000000e+00 )
54  ( 6.670788e-06, 0.000000e+00 )
55  ( 2.569630e-06, 0.000000e+00 )
56  ( -6.340966e-06, 0.000000e+00 )
57  ( -6.020459e-06, 0.000000e+00 )
58  ( 4.966929e-06, 0.000000e+00 )
59  ( 3.226521e-06, 0.000000e+00 )
60  ( 1.319526e-06, 0.000000e+00 )
61  ( 7.938498e-06, 0.000000e+00 )
62  ( 1.279778e-05, 0.000000e+00 )
63  ( -9.889270e-06, 0.000000e+00 )

exported /scratch/snx3000/aaltherr/g-2/dat/A400a00b324/disconnected_el/64x32b3.24a0.00ku0.134408kd0.134408ks0.134408kc0.127840r003n40_twopoint_c0.dat
status = 11000,5000
exported /scratch/snx3000/aaltherr/g-2/dat/A400a00b324/disconnected_el/64x32b3.24a0.00ku0.134408kd0.134408ks0.134408kc0.127840r003n40_onepoint.dat

Computation of propagator completed
status = 0,0
Dirac equation: 1.70e+09 sec per solution (average 1.70e+09 sec)
Configuration no 40 fully processed in 4.10e+03 sec (average = 4.10e+03 sec)

